-- Merging decision tree log ---
manifest
ADDED from /home/abc/AndroidAppWorkspace/PotRidersApp/PotRidersUser/app/src/main/AndroidManifest.xml:2:1-109:12
INJECTED from /home/abc/AndroidAppWorkspace/PotRidersApp/PotRidersUser/app/src/main/AndroidManifest.xml:2:1-109:12
INJECTED from /home/abc/AndroidAppWorkspace/PotRidersApp/PotRidersUser/app/src/main/AndroidManifest.xml:2:1-109:12
INJECTED from /home/abc/AndroidAppWorkspace/PotRidersApp/PotRidersUser/app/src/main/AndroidManifest.xml:2:1-109:12
MERGED from [com.android.databinding:adapters:3.2.1] /home/abc/.gradle/caches/transforms-1/files-1.1/adapters-3.2.1.aar/827b451daf606b30e31540c727a22476/AndroidManifest.xml:17:1-24:12
MERGED from [com.android.databinding:library:3.2.1] /home/abc/.gradle/caches/transforms-1/files-1.1/library-3.2.1.aar/82a50df4f585ebb80a8ff58d262e2a3e/AndroidManifest.xml:17:1-24:12
MERGED from [:paper-onboarding] /home/abc/AndroidAppWorkspace/PotRidersApp/PotRidersUser/paper-onboarding/build/intermediates/merged_manifests/debug/processDebugManifest/merged/AndroidManifest.xml:2:1-17:12
MERGED from [com.android.support:design:28.0.0] /home/abc/.gradle/caches/transforms-1/files-1.1/design-28.0.0.aar/ca4fbe272191e0e0a3195494051ae4b0/AndroidManifest.xml:17:1-24:12
MERGED from [com.github.Binary-Finery:Bungee:master-SNAPSHOT] /home/abc/.gradle/caches/transforms-1/files-1.1/Bungee-master-SNAPSHOT.aar/90c9c3ed22d68a19af4aa03e9b9dc2f1/AndroidManifest.xml:2:1-17:12
MERGED from [com.yarolegovich:sliding-root-nav:1.1.0] /home/abc/.gradle/caches/transforms-1/files-1.1/sliding-root-nav-1.1.0.aar/5dceedb906f3fc95f21e9135490960e9/AndroidManifest.xml:2:1-10:12
MERGED from [com.android.support:appcompat-v7:28.0.0] /home/abc/.gradle/caches/transforms-1/files-1.1/appcompat-v7-28.0.0.aar/d352f816ee8fd909fa27dccc4b9fb9a0/AndroidManifest.xml:17:1-22:12
MERGED from [com.android.support.constraint:constraint-layout:1.1.3] /home/abc/.gradle/caches/transforms-1/files-1.1/constraint-layout-1.1.3.aar/42c561ea16dc65d1504b63c13775c44d/AndroidManifest.xml:2:1-11:12
MERGED from [com.android.support:cardview-v7:28.0.0] /home/abc/.gradle/caches/transforms-1/files-1.1/cardview-v7-28.0.0.aar/1a5cf2b187dbed121cffd57baf0f3354/AndroidManifest.xml:17:1-22:12
MERGED from [com.android.support:recyclerview-v7:28.0.0] /home/abc/.gradle/caches/transforms-1/files-1.1/recyclerview-v7-28.0.0.aar/609a8b3100404280b0fdca3aa96c1cdf/AndroidManifest.xml:17:1-22:12
MERGED from [com.github.JakeWharton:ViewPagerIndicator:2.4.1] /home/abc/.gradle/caches/transforms-1/files-1.1/ViewPagerIndicator-2.4.1.aar/e8d2520989a9affa850c49f6cef0551a/AndroidManifest.xml:2:1-11:12
MERGED from [com.google.android.gms:play-services-location:16.0.0] /home/abc/.gradle/caches/transforms-1/files-1.1/play-services-location-16.0.0.aar/0f66a1ee6bf6b1f02ed2ffa8fc8555ed/AndroidManifest.xml:2:1-9:12
MERGED from [com.google.android.gms:play-services-maps:16.0.0] /home/abc/.gradle/caches/transforms-1/files-1.1/play-services-maps-16.0.0.aar/6123abc092ab93589000e909751cba8f/AndroidManifest.xml:17:1-32:12
MERGED from [com.google.android.gms:play-services-base:16.0.1] /home/abc/.gradle/caches/transforms-1/files-1.1/play-services-base-16.0.1.aar/0683ce9bacd3c4e71a1a8ba97053d2f0/AndroidManifest.xml:17:1-29:12
MERGED from [com.google.android.gms:play-services-places-placereport:16.0.0] /home/abc/.gradle/caches/transforms-1/files-1.1/play-services-places-placereport-16.0.0.aar/b9754ea3d6fa777a83b0d2d9e46b4761/AndroidManifest.xml:17:1-24:12
MERGED from [com.google.android.gms:play-services-tasks:16.0.1] /home/abc/.gradle/caches/transforms-1/files-1.1/play-services-tasks-16.0.1.aar/7e943b7e47b1d14ed78ce060472409a1/AndroidManifest.xml:2:1-9:12
MERGED from [com.google.android.gms:play-services-basement:16.0.1] /home/abc/.gradle/caches/transforms-1/files-1.1/play-services-basement-16.0.1.aar/b6d8f4f2b02c9be6410796adebdb8f51/AndroidManifest.xml:17:1-28:12
MERGED from [com.android.support:support-v4:28.0.0] /home/abc/.gradle/caches/transforms-1/files-1.1/support-v4-28.0.0.aar/fdec2396c4b68f304b07c79464f71012/AndroidManifest.xml:17:1-22:12
MERGED from [de.hdodenhof:circleimageview:2.2.0] /home/abc/.gradle/caches/transforms-1/files-1.1/circleimageview-2.2.0.aar/c77ed1bd4ea0633da90bc27369291f57/AndroidManifest.xml:2:1-11:12
MERGED from [com.makeramen:roundedimageview:2.3.0] /home/abc/.gradle/caches/transforms-1/files-1.1/roundedimageview-2.3.0.aar/addf15c13f36d86fcec014d2d636d5f5/AndroidManifest.xml:2:1-9:12
MERGED from [com.squareup.picasso:picasso:2.71828] /home/abc/.gradle/caches/transforms-1/files-1.1/picasso-2.71828.aar/679918e637e492341b5f355fdea93703/AndroidManifest.xml:2:1-14:12
MERGED from [com.daimajia.easing:library:2.0] /home/abc/.gradle/caches/transforms-1/files-1.1/library-2.0.aar/abbedffa482cb5a46c8c5cb07f1a46ef/AndroidManifest.xml:2:1-12:12
MERGED from [com.daimajia.androidanimations:library:2.3] /home/abc/.gradle/caches/transforms-1/files-1.1/library-2.3.aar/32d369535557d3f3a811434876e3352a/AndroidManifest.xml:2:1-12:12
MERGED from [com.android.support:support-fragment:28.0.0] /home/abc/.gradle/caches/transforms-1/files-1.1/support-fragment-28.0.0.aar/5ada1f7666b922486f727a1acfb0c5c4/AndroidManifest.xml:17:1-22:12
MERGED from [com.android.support:animated-vector-drawable:28.0.0] /home/abc/.gradle/caches/transforms-1/files-1.1/animated-vector-drawable-28.0.0.aar/b993da1afd441ac997bee017ae9276ba/AndroidManifest.xml:17:1-22:12
MERGED from [com.android.support:support-core-ui:28.0.0] /home/abc/.gradle/caches/transforms-1/files-1.1/support-core-ui-28.0.0.aar/0fe743dfa83d41f13cc796aa814f264b/AndroidManifest.xml:17:1-22:12
MERGED from [com.android.support:transition:28.0.0] /home/abc/.gradle/caches/transforms-1/files-1.1/transition-28.0.0.aar/cfb7eb5cc5966d35b3d9ad86512985f2/AndroidManifest.xml:17:1-22:12
MERGED from [com.android.support:support-core-utils:28.0.0] /home/abc/.gradle/caches/transforms-1/files-1.1/support-core-utils-28.0.0.aar/03f49bffaedec38575c21ef42b135da4/AndroidManifest.xml:17:1-22:12
MERGED from [com.android.support:loader:28.0.0] /home/abc/.gradle/caches/transforms-1/files-1.1/loader-28.0.0.aar/da3d94dc4bf95d1de4947dab3dfe74f7/AndroidManifest.xml:17:1-22:12
MERGED from [com.android.support:viewpager:28.0.0] /home/abc/.gradle/caches/transforms-1/files-1.1/viewpager-28.0.0.aar/5bbb2c38165a17e350d03533ccad36e1/AndroidManifest.xml:17:1-22:12
MERGED from [com.android.support:coordinatorlayout:28.0.0] /home/abc/.gradle/caches/transforms-1/files-1.1/coordinatorlayout-28.0.0.aar/bae7af3c901c30130273a373a2a84665/AndroidManifest.xml:17:1-22:12
MERGED from [com.android.support:drawerlayout:28.0.0] /home/abc/.gradle/caches/transforms-1/files-1.1/drawerlayout-28.0.0.aar/8afe91e91aae99853bf9cf46d0034a97/AndroidManifest.xml:17:1-22:12
MERGED from [com.android.support:slidingpanelayout:28.0.0] /home/abc/.gradle/caches/transforms-1/files-1.1/slidingpanelayout-28.0.0.aar/91aa111d6ae90c588a595a035fd4682c/AndroidManifest.xml:17:1-22:12
MERGED from [com.android.support:customview:28.0.0] /home/abc/.gradle/caches/transforms-1/files-1.1/customview-28.0.0.aar/b7d4112d001fcb258cd8905c41b13a5a/AndroidManifest.xml:17:1-22:12
MERGED from [com.android.support:swiperefreshlayout:28.0.0] /home/abc/.gradle/caches/transforms-1/files-1.1/swiperefreshlayout-28.0.0.aar/63bfb6b858ec92ae391bb652ac6ff2df/AndroidManifest.xml:17:1-22:12
MERGED from [com.android.support:asynclayoutinflater:28.0.0] /home/abc/.gradle/caches/transforms-1/files-1.1/asynclayoutinflater-28.0.0.aar/c9e7198fb55aa1b6917e063702419133/AndroidManifest.xml:17:1-22:12
MERGED from [com.android.support:support-media-compat:28.0.0] /home/abc/.gradle/caches/transforms-1/files-1.1/support-media-compat-28.0.0.aar/cdb4383b0021dc67783a4ce7af83a845/AndroidManifest.xml:17:1-22:12
MERGED from [com.android.support:support-vector-drawable:28.0.0] /home/abc/.gradle/caches/transforms-1/files-1.1/support-vector-drawable-28.0.0.aar/907ca57806502146036ced1328eb6ca7/AndroidManifest.xml:17:1-22:12
MERGED from [com.android.support:support-compat:28.0.0] /home/abc/.gradle/caches/transforms-1/files-1.1/support-compat-28.0.0.aar/1d86d14c1a42a590c5359029a29634cf/AndroidManifest.xml:17:1-24:12
MERGED from [android.arch.lifecycle:runtime:1.1.1] /home/abc/.gradle/caches/transforms-1/files-1.1/runtime-1.1.1.aar/509c208d22864401312cb92c023190b1/AndroidManifest.xml:17:1-22:12
MERGED from [com.android.support:versionedparcelable:28.0.0] /home/abc/.gradle/caches/transforms-1/files-1.1/versionedparcelable-28.0.0.aar/cfdb7c1472877e9329def719d30e58da/AndroidManifest.xml:17:1-25:12
MERGED from [com.android.support:exifinterface:27.1.0] /home/abc/.gradle/caches/transforms-1/files-1.1/exifinterface-27.1.0.aar/eeb53a845c2d59a57b403548fa4d2449/AndroidManifest.xml:17:1-22:12
MERGED from [android.arch.lifecycle:viewmodel:1.1.1] /home/abc/.gradle/caches/transforms-1/files-1.1/viewmodel-1.1.1.aar/41c8ea299e33321034ba9b543c16b640/AndroidManifest.xml:17:1-22:12
MERGED from [com.android.support:interpolator:28.0.0] /home/abc/.gradle/caches/transforms-1/files-1.1/interpolator-28.0.0.aar/e062413d17ec2b276bd36ab4e931fd66/AndroidManifest.xml:17:1-22:12
MERGED from [com.android.support:cursoradapter:28.0.0] /home/abc/.gradle/caches/transforms-1/files-1.1/cursoradapter-28.0.0.aar/b6c13468985002b1587a9a2f56bedaaf/AndroidManifest.xml:17:1-22:12
MERGED from [android.arch.lifecycle:livedata:1.1.1] /home/abc/.gradle/caches/transforms-1/files-1.1/livedata-1.1.1.aar/1c31953fb015df0265fb0635026a7206/AndroidManifest.xml:17:1-22:12
MERGED from [android.arch.lifecycle:livedata-core:1.1.1] /home/abc/.gradle/caches/transforms-1/files-1.1/livedata-core-1.1.1.aar/31c3d5ed249f29086b952df7164872f5/AndroidManifest.xml:17:1-22:12
MERGED from [android.arch.core:runtime:1.1.1] /home/abc/.gradle/caches/transforms-1/files-1.1/runtime-1.1.1.aar/95ad789b0a489218bf86cf2a4495886c/AndroidManifest.xml:17:1-22:12
MERGED from [com.android.support:documentfile:28.0.0] /home/abc/.gradle/caches/transforms-1/files-1.1/documentfile-28.0.0.aar/18076f96c495f7361ed20a5f96f3de0f/AndroidManifest.xml:17:1-22:12
MERGED from [com.android.support:localbroadcastmanager:28.0.0] /home/abc/.gradle/caches/transforms-1/files-1.1/localbroadcastmanager-28.0.0.aar/6ca103656988aa7d3acd3e91c573198c/AndroidManifest.xml:17:1-22:12
MERGED from [com.android.support:print:28.0.0] /home/abc/.gradle/caches/transforms-1/files-1.1/print-28.0.0.aar/b41177639c64ba4d1d9f1ada7da11ee9/AndroidManifest.xml:17:1-22:12
INJECTED from /home/abc/AndroidAppWorkspace/PotRidersApp/PotRidersUser/app/src/main/AndroidManifest.xml:2:1-109:12
INJECTED from /home/abc/AndroidAppWorkspace/PotRidersApp/PotRidersUser/app/src/main/AndroidManifest.xml:2:1-109:12
INJECTED from /home/abc/AndroidAppWorkspace/PotRidersApp/PotRidersUser/app/src/main/AndroidManifest.xml:2:1-109:12
	package
		ADDED from /home/abc/AndroidAppWorkspace/PotRidersApp/PotRidersUser/app/src/main/AndroidManifest.xml:4:5-32
		INJECTED from /home/abc/AndroidAppWorkspace/PotRidersApp/PotRidersUser/app/src/main/AndroidManifest.xml
		INJECTED from /home/abc/AndroidAppWorkspace/PotRidersApp/PotRidersUser/app/src/main/AndroidManifest.xml
	android:versionName
		INJECTED from /home/abc/AndroidAppWorkspace/PotRidersApp/PotRidersUser/app/src/main/AndroidManifest.xml
		ADDED from /home/abc/AndroidAppWorkspace/PotRidersApp/PotRidersUser/app/src/main/AndroidManifest.xml:2:1-109:12
		INJECTED from /home/abc/AndroidAppWorkspace/PotRidersApp/PotRidersUser/app/src/main/AndroidManifest.xml
	xmlns:tools
		ADDED from /home/abc/AndroidAppWorkspace/PotRidersApp/PotRidersUser/app/src/main/AndroidManifest.xml:3:5-51
	android:versionCode
		INJECTED from /home/abc/AndroidAppWorkspace/PotRidersApp/PotRidersUser/app/src/main/AndroidManifest.xml
		ADDED from /home/abc/AndroidAppWorkspace/PotRidersApp/PotRidersUser/app/src/main/AndroidManifest.xml:2:1-109:12
		INJECTED from /home/abc/AndroidAppWorkspace/PotRidersApp/PotRidersUser/app/src/main/AndroidManifest.xml
	xmlns:android
		ADDED from /home/abc/AndroidAppWorkspace/PotRidersApp/PotRidersUser/app/src/main/AndroidManifest.xml:2:11-69
uses-permission#android.permission.ACCESS_NETWORK_STATE
ADDED from /home/abc/AndroidAppWorkspace/PotRidersApp/PotRidersUser/app/src/main/AndroidManifest.xml:6:5-79
MERGED from [com.google.android.gms:play-services-maps:16.0.0] /home/abc/.gradle/caches/transforms-1/files-1.1/play-services-maps-16.0.0.aar/6123abc092ab93589000e909751cba8f/AndroidManifest.xml:23:5-79
MERGED from [com.google.android.gms:play-services-maps:16.0.0] /home/abc/.gradle/caches/transforms-1/files-1.1/play-services-maps-16.0.0.aar/6123abc092ab93589000e909751cba8f/AndroidManifest.xml:23:5-79
	android:name
		ADDED from /home/abc/AndroidAppWorkspace/PotRidersApp/PotRidersUser/app/src/main/AndroidManifest.xml:6:22-76
uses-permission#android.permission.INTERNET
ADDED from /home/abc/AndroidAppWorkspace/PotRidersApp/PotRidersUser/app/src/main/AndroidManifest.xml:7:5-67
MERGED from [com.google.android.gms:play-services-maps:16.0.0] /home/abc/.gradle/caches/transforms-1/files-1.1/play-services-maps-16.0.0.aar/6123abc092ab93589000e909751cba8f/AndroidManifest.xml:24:5-67
MERGED from [com.google.android.gms:play-services-maps:16.0.0] /home/abc/.gradle/caches/transforms-1/files-1.1/play-services-maps-16.0.0.aar/6123abc092ab93589000e909751cba8f/AndroidManifest.xml:24:5-67
	android:name
		ADDED from /home/abc/AndroidAppWorkspace/PotRidersApp/PotRidersUser/app/src/main/AndroidManifest.xml:7:22-64
uses-permission#android.permission.READ_EXTERNAL_STORAGE
ADDED from /home/abc/AndroidAppWorkspace/PotRidersApp/PotRidersUser/app/src/main/AndroidManifest.xml:8:5-80
	android:name
		ADDED from /home/abc/AndroidAppWorkspace/PotRidersApp/PotRidersUser/app/src/main/AndroidManifest.xml:8:22-77
uses-permission#android.permission.WRITE_EXTERNAL_STORAGE
ADDED from /home/abc/AndroidAppWorkspace/PotRidersApp/PotRidersUser/app/src/main/AndroidManifest.xml:9:5-81
	android:name
		ADDED from /home/abc/AndroidAppWorkspace/PotRidersApp/PotRidersUser/app/src/main/AndroidManifest.xml:9:22-78
uses-permission#android.permission.ACCESS_FINE_LOCATION
ADDED from /home/abc/AndroidAppWorkspace/PotRidersApp/PotRidersUser/app/src/main/AndroidManifest.xml:10:5-79
	android:name
		ADDED from /home/abc/AndroidAppWorkspace/PotRidersApp/PotRidersUser/app/src/main/AndroidManifest.xml:10:22-76
uses-permission#android.permission.ACCESS_COARSE_LOCATION
ADDED from /home/abc/AndroidAppWorkspace/PotRidersApp/PotRidersUser/app/src/main/AndroidManifest.xml:11:5-81
	android:name
		ADDED from /home/abc/AndroidAppWorkspace/PotRidersApp/PotRidersUser/app/src/main/AndroidManifest.xml:11:22-78
uses-permission#android.permission.CAMERA
ADDED from /home/abc/AndroidAppWorkspace/PotRidersApp/PotRidersUser/app/src/main/AndroidManifest.xml:12:5-65
	android:name
		ADDED from /home/abc/AndroidAppWorkspace/PotRidersApp/PotRidersUser/app/src/main/AndroidManifest.xml:12:22-62
uses-permission#android.permission.WAKE_LOCK
ADDED from /home/abc/AndroidAppWorkspace/PotRidersApp/PotRidersUser/app/src/main/AndroidManifest.xml:13:5-68
	android:name
		ADDED from /home/abc/AndroidAppWorkspace/PotRidersApp/PotRidersUser/app/src/main/AndroidManifest.xml:13:22-65
uses-permission#com.google.android.c2dm.permission.RECEIVE
ADDED from /home/abc/AndroidAppWorkspace/PotRidersApp/PotRidersUser/app/src/main/AndroidManifest.xml:14:5-82
	android:name
		ADDED from /home/abc/AndroidAppWorkspace/PotRidersApp/PotRidersUser/app/src/main/AndroidManifest.xml:14:22-79
uses-permission#android.permission.CALL_PHONE
ADDED from /home/abc/AndroidAppWorkspace/PotRidersApp/PotRidersUser/app/src/main/AndroidManifest.xml:15:5-69
	android:name
		ADDED from /home/abc/AndroidAppWorkspace/PotRidersApp/PotRidersUser/app/src/main/AndroidManifest.xml:15:22-66
application
ADDED from /home/abc/AndroidAppWorkspace/PotRidersApp/PotRidersUser/app/src/main/AndroidManifest.xml:17:5-107:19
MERGED from [:paper-onboarding] /home/abc/AndroidAppWorkspace/PotRidersApp/PotRidersUser/paper-onboarding/build/intermediates/merged_manifests/debug/processDebugManifest/merged/AndroidManifest.xml:11:5-15:19
MERGED from [:paper-onboarding] /home/abc/AndroidAppWorkspace/PotRidersApp/PotRidersUser/paper-onboarding/build/intermediates/merged_manifests/debug/processDebugManifest/merged/AndroidManifest.xml:11:5-15:19
MERGED from [com.android.support:design:28.0.0] /home/abc/.gradle/caches/transforms-1/files-1.1/design-28.0.0.aar/ca4fbe272191e0e0a3195494051ae4b0/AndroidManifest.xml:22:5-20
MERGED from [com.android.support:design:28.0.0] /home/abc/.gradle/caches/transforms-1/files-1.1/design-28.0.0.aar/ca4fbe272191e0e0a3195494051ae4b0/AndroidManifest.xml:22:5-20
MERGED from [com.github.Binary-Finery:Bungee:master-SNAPSHOT] /home/abc/.gradle/caches/transforms-1/files-1.1/Bungee-master-SNAPSHOT.aar/90c9c3ed22d68a19af4aa03e9b9dc2f1/AndroidManifest.xml:11:5-15:19
MERGED from [com.github.Binary-Finery:Bungee:master-SNAPSHOT] /home/abc/.gradle/caches/transforms-1/files-1.1/Bungee-master-SNAPSHOT.aar/90c9c3ed22d68a19af4aa03e9b9dc2f1/AndroidManifest.xml:11:5-15:19
MERGED from [com.android.support.constraint:constraint-layout:1.1.3] /home/abc/.gradle/caches/transforms-1/files-1.1/constraint-layout-1.1.3.aar/42c561ea16dc65d1504b63c13775c44d/AndroidManifest.xml:9:5-20
MERGED from [com.android.support.constraint:constraint-layout:1.1.3] /home/abc/.gradle/caches/transforms-1/files-1.1/constraint-layout-1.1.3.aar/42c561ea16dc65d1504b63c13775c44d/AndroidManifest.xml:9:5-20
MERGED from [com.google.android.gms:play-services-location:16.0.0] /home/abc/.gradle/caches/transforms-1/files-1.1/play-services-location-16.0.0.aar/0f66a1ee6bf6b1f02ed2ffa8fc8555ed/AndroidManifest.xml:7:5-20
MERGED from [com.google.android.gms:play-services-location:16.0.0] /home/abc/.gradle/caches/transforms-1/files-1.1/play-services-location-16.0.0.aar/0f66a1ee6bf6b1f02ed2ffa8fc8555ed/AndroidManifest.xml:7:5-20
MERGED from [com.google.android.gms:play-services-maps:16.0.0] /home/abc/.gradle/caches/transforms-1/files-1.1/play-services-maps-16.0.0.aar/6123abc092ab93589000e909751cba8f/AndroidManifest.xml:30:5-20
MERGED from [com.google.android.gms:play-services-maps:16.0.0] /home/abc/.gradle/caches/transforms-1/files-1.1/play-services-maps-16.0.0.aar/6123abc092ab93589000e909751cba8f/AndroidManifest.xml:30:5-20
MERGED from [com.google.android.gms:play-services-base:16.0.1] /home/abc/.gradle/caches/transforms-1/files-1.1/play-services-base-16.0.1.aar/0683ce9bacd3c4e71a1a8ba97053d2f0/AndroidManifest.xml:22:5-27:19
MERGED from [com.google.android.gms:play-services-base:16.0.1] /home/abc/.gradle/caches/transforms-1/files-1.1/play-services-base-16.0.1.aar/0683ce9bacd3c4e71a1a8ba97053d2f0/AndroidManifest.xml:22:5-27:19
MERGED from [com.google.android.gms:play-services-places-placereport:16.0.0] /home/abc/.gradle/caches/transforms-1/files-1.1/play-services-places-placereport-16.0.0.aar/b9754ea3d6fa777a83b0d2d9e46b4761/AndroidManifest.xml:22:5-20
MERGED from [com.google.android.gms:play-services-places-placereport:16.0.0] /home/abc/.gradle/caches/transforms-1/files-1.1/play-services-places-placereport-16.0.0.aar/b9754ea3d6fa777a83b0d2d9e46b4761/AndroidManifest.xml:22:5-20
MERGED from [com.google.android.gms:play-services-tasks:16.0.1] /home/abc/.gradle/caches/transforms-1/files-1.1/play-services-tasks-16.0.1.aar/7e943b7e47b1d14ed78ce060472409a1/AndroidManifest.xml:7:5-20
MERGED from [com.google.android.gms:play-services-tasks:16.0.1] /home/abc/.gradle/caches/transforms-1/files-1.1/play-services-tasks-16.0.1.aar/7e943b7e47b1d14ed78ce060472409a1/AndroidManifest.xml:7:5-20
MERGED from [com.google.android.gms:play-services-basement:16.0.1] /home/abc/.gradle/caches/transforms-1/files-1.1/play-services-basement-16.0.1.aar/b6d8f4f2b02c9be6410796adebdb8f51/AndroidManifest.xml:22:5-26:19
MERGED from [com.google.android.gms:play-services-basement:16.0.1] /home/abc/.gradle/caches/transforms-1/files-1.1/play-services-basement-16.0.1.aar/b6d8f4f2b02c9be6410796adebdb8f51/AndroidManifest.xml:22:5-26:19
MERGED from [de.hdodenhof:circleimageview:2.2.0] /home/abc/.gradle/caches/transforms-1/files-1.1/circleimageview-2.2.0.aar/c77ed1bd4ea0633da90bc27369291f57/AndroidManifest.xml:9:5-20
MERGED from [de.hdodenhof:circleimageview:2.2.0] /home/abc/.gradle/caches/transforms-1/files-1.1/circleimageview-2.2.0.aar/c77ed1bd4ea0633da90bc27369291f57/AndroidManifest.xml:9:5-20
MERGED from [com.squareup.picasso:picasso:2.71828] /home/abc/.gradle/caches/transforms-1/files-1.1/picasso-2.71828.aar/679918e637e492341b5f355fdea93703/AndroidManifest.xml:7:5-12:19
MERGED from [com.squareup.picasso:picasso:2.71828] /home/abc/.gradle/caches/transforms-1/files-1.1/picasso-2.71828.aar/679918e637e492341b5f355fdea93703/AndroidManifest.xml:7:5-12:19
MERGED from [com.android.support:support-compat:28.0.0] /home/abc/.gradle/caches/transforms-1/files-1.1/support-compat-28.0.0.aar/1d86d14c1a42a590c5359029a29634cf/AndroidManifest.xml:22:5-94
MERGED from [com.android.support:support-compat:28.0.0] /home/abc/.gradle/caches/transforms-1/files-1.1/support-compat-28.0.0.aar/1d86d14c1a42a590c5359029a29634cf/AndroidManifest.xml:22:5-94
MERGED from [com.android.support:versionedparcelable:28.0.0] /home/abc/.gradle/caches/transforms-1/files-1.1/versionedparcelable-28.0.0.aar/cfdb7c1472877e9329def719d30e58da/AndroidManifest.xml:22:5-23:19
MERGED from [com.android.support:versionedparcelable:28.0.0] /home/abc/.gradle/caches/transforms-1/files-1.1/versionedparcelable-28.0.0.aar/cfdb7c1472877e9329def719d30e58da/AndroidManifest.xml:22:5-23:19
	android:appComponentFactory
		ADDED from [com.android.support:support-compat:28.0.0] /home/abc/.gradle/caches/transforms-1/files-1.1/support-compat-28.0.0.aar/1d86d14c1a42a590c5359029a29634cf/AndroidManifest.xml:22:18-91
	android:supportsRtl
		ADDED from /home/abc/AndroidAppWorkspace/PotRidersApp/PotRidersUser/app/src/main/AndroidManifest.xml:22:9-35
	android:label
		ADDED from /home/abc/AndroidAppWorkspace/PotRidersApp/PotRidersUser/app/src/main/AndroidManifest.xml:20:9-41
	tools:ignore
		ADDED from /home/abc/AndroidAppWorkspace/PotRidersApp/PotRidersUser/app/src/main/AndroidManifest.xml:25:9-48
	android:roundIcon
		ADDED from /home/abc/AndroidAppWorkspace/PotRidersApp/PotRidersUser/app/src/main/AndroidManifest.xml:21:9-54
	android:icon
		ADDED from /home/abc/AndroidAppWorkspace/PotRidersApp/PotRidersUser/app/src/main/AndroidManifest.xml:19:9-43
	android:allowBackup
		ADDED from /home/abc/AndroidAppWorkspace/PotRidersApp/PotRidersUser/app/src/main/AndroidManifest.xml:24:9-35
	android:theme
		ADDED from /home/abc/AndroidAppWorkspace/PotRidersApp/PotRidersUser/app/src/main/AndroidManifest.xml:23:9-40
	android:name
		ADDED from /home/abc/AndroidAppWorkspace/PotRidersApp/PotRidersUser/app/src/main/AndroidManifest.xml:18:9-37
activity#dev.env.potriders.activity.SplaceAlert
ADDED from /home/abc/AndroidAppWorkspace/PotRidersApp/PotRidersUser/app/src/main/AndroidManifest.xml:26:9-29:46
	android:screenOrientation
		ADDED from /home/abc/AndroidAppWorkspace/PotRidersApp/PotRidersUser/app/src/main/AndroidManifest.xml:28:13-49
	android:theme
		ADDED from /home/abc/AndroidAppWorkspace/PotRidersApp/PotRidersUser/app/src/main/AndroidManifest.xml:29:13-44
	android:name
		ADDED from /home/abc/AndroidAppWorkspace/PotRidersApp/PotRidersUser/app/src/main/AndroidManifest.xml:27:13-49
activity#dev.env.potriders.activity.Splash
ADDED from /home/abc/AndroidAppWorkspace/PotRidersApp/PotRidersUser/app/src/main/AndroidManifest.xml:30:9-39:20
	android:screenOrientation
		ADDED from /home/abc/AndroidAppWorkspace/PotRidersApp/PotRidersUser/app/src/main/AndroidManifest.xml:32:13-49
	android:theme
		ADDED from /home/abc/AndroidAppWorkspace/PotRidersApp/PotRidersUser/app/src/main/AndroidManifest.xml:33:13-44
	android:name
		ADDED from /home/abc/AndroidAppWorkspace/PotRidersApp/PotRidersUser/app/src/main/AndroidManifest.xml:31:13-44
intent-filter#action:name:android.intent.action.MAIN+category:name:android.intent.category.LAUNCHER
ADDED from /home/abc/AndroidAppWorkspace/PotRidersApp/PotRidersUser/app/src/main/AndroidManifest.xml:34:13-38:29
action#android.intent.action.MAIN
ADDED from /home/abc/AndroidAppWorkspace/PotRidersApp/PotRidersUser/app/src/main/AndroidManifest.xml:35:17-69
	android:name
		ADDED from /home/abc/AndroidAppWorkspace/PotRidersApp/PotRidersUser/app/src/main/AndroidManifest.xml:35:25-66
category#android.intent.category.LAUNCHER
ADDED from /home/abc/AndroidAppWorkspace/PotRidersApp/PotRidersUser/app/src/main/AndroidManifest.xml:37:17-77
	android:name
		ADDED from /home/abc/AndroidAppWorkspace/PotRidersApp/PotRidersUser/app/src/main/AndroidManifest.xml:37:27-74
activity#dev.env.potriders.activity.Login
ADDED from /home/abc/AndroidAppWorkspace/PotRidersApp/PotRidersUser/app/src/main/AndroidManifest.xml:40:9-44:73
	android:screenOrientation
		ADDED from /home/abc/AndroidAppWorkspace/PotRidersApp/PotRidersUser/app/src/main/AndroidManifest.xml:42:13-49
	android:windowSoftInputMode
		ADDED from /home/abc/AndroidAppWorkspace/PotRidersApp/PotRidersUser/app/src/main/AndroidManifest.xml:44:13-70
	android:theme
		ADDED from /home/abc/AndroidAppWorkspace/PotRidersApp/PotRidersUser/app/src/main/AndroidManifest.xml:43:13-44
	android:name
		ADDED from /home/abc/AndroidAppWorkspace/PotRidersApp/PotRidersUser/app/src/main/AndroidManifest.xml:41:13-43
activity#dev.env.potriders.activity.viewActivity.ChooseOptionActivity
ADDED from /home/abc/AndroidAppWorkspace/PotRidersApp/PotRidersUser/app/src/main/AndroidManifest.xml:45:9-48:47
	android:screenOrientation
		ADDED from /home/abc/AndroidAppWorkspace/PotRidersApp/PotRidersUser/app/src/main/AndroidManifest.xml:47:13-49
	android:theme
		ADDED from /home/abc/AndroidAppWorkspace/PotRidersApp/PotRidersUser/app/src/main/AndroidManifest.xml:48:13-44
	android:name
		ADDED from /home/abc/AndroidAppWorkspace/PotRidersApp/PotRidersUser/app/src/main/AndroidManifest.xml:46:13-71
activity#dev.env.potriders.activity.Register
ADDED from /home/abc/AndroidAppWorkspace/PotRidersApp/PotRidersUser/app/src/main/AndroidManifest.xml:49:9-53:73
	android:screenOrientation
		ADDED from /home/abc/AndroidAppWorkspace/PotRidersApp/PotRidersUser/app/src/main/AndroidManifest.xml:51:13-49
	android:windowSoftInputMode
		ADDED from /home/abc/AndroidAppWorkspace/PotRidersApp/PotRidersUser/app/src/main/AndroidManifest.xml:53:13-70
	android:theme
		ADDED from /home/abc/AndroidAppWorkspace/PotRidersApp/PotRidersUser/app/src/main/AndroidManifest.xml:52:13-44
	android:name
		ADDED from /home/abc/AndroidAppWorkspace/PotRidersApp/PotRidersUser/app/src/main/AndroidManifest.xml:50:13-46
activity#dev.env.potriders.activity.ForgotPassword
ADDED from /home/abc/AndroidAppWorkspace/PotRidersApp/PotRidersUser/app/src/main/AndroidManifest.xml:54:9-58:73
	android:screenOrientation
		ADDED from /home/abc/AndroidAppWorkspace/PotRidersApp/PotRidersUser/app/src/main/AndroidManifest.xml:56:13-49
	android:windowSoftInputMode
		ADDED from /home/abc/AndroidAppWorkspace/PotRidersApp/PotRidersUser/app/src/main/AndroidManifest.xml:58:13-70
	android:theme
		ADDED from /home/abc/AndroidAppWorkspace/PotRidersApp/PotRidersUser/app/src/main/AndroidManifest.xml:57:13-44
	android:name
		ADDED from /home/abc/AndroidAppWorkspace/PotRidersApp/PotRidersUser/app/src/main/AndroidManifest.xml:55:13-52
activity#dev.env.potriders.activity.viewActivity.MainActivity
ADDED from /home/abc/AndroidAppWorkspace/PotRidersApp/PotRidersUser/app/src/main/AndroidManifest.xml:59:9-63:73
	android:screenOrientation
		ADDED from /home/abc/AndroidAppWorkspace/PotRidersApp/PotRidersUser/app/src/main/AndroidManifest.xml:61:13-49
	android:windowSoftInputMode
		ADDED from /home/abc/AndroidAppWorkspace/PotRidersApp/PotRidersUser/app/src/main/AndroidManifest.xml:63:13-70
	android:theme
		ADDED from /home/abc/AndroidAppWorkspace/PotRidersApp/PotRidersUser/app/src/main/AndroidManifest.xml:62:13-44
	android:name
		ADDED from /home/abc/AndroidAppWorkspace/PotRidersApp/PotRidersUser/app/src/main/AndroidManifest.xml:60:13-63
activity#dev.env.potriders.activity.viewActivity.FullScreenViewActivity
ADDED from /home/abc/AndroidAppWorkspace/PotRidersApp/PotRidersUser/app/src/main/AndroidManifest.xml:64:9-67:59
	android:screenOrientation
		ADDED from /home/abc/AndroidAppWorkspace/PotRidersApp/PotRidersUser/app/src/main/AndroidManifest.xml:66:13-49
	android:theme
		ADDED from /home/abc/AndroidAppWorkspace/PotRidersApp/PotRidersUser/app/src/main/AndroidManifest.xml:67:13-56
	android:name
		ADDED from /home/abc/AndroidAppWorkspace/PotRidersApp/PotRidersUser/app/src/main/AndroidManifest.xml:65:13-73
activity#dev.env.potriders.activity.viewActivity.FullDescriptionActivity
ADDED from /home/abc/AndroidAppWorkspace/PotRidersApp/PotRidersUser/app/src/main/AndroidManifest.xml:68:9-73:73
	android:screenOrientation
		ADDED from /home/abc/AndroidAppWorkspace/PotRidersApp/PotRidersUser/app/src/main/AndroidManifest.xml:71:13-49
	android:label
		ADDED from /home/abc/AndroidAppWorkspace/PotRidersApp/PotRidersUser/app/src/main/AndroidManifest.xml:70:13-57
	android:windowSoftInputMode
		ADDED from /home/abc/AndroidAppWorkspace/PotRidersApp/PotRidersUser/app/src/main/AndroidManifest.xml:73:13-70
	android:theme
		ADDED from /home/abc/AndroidAppWorkspace/PotRidersApp/PotRidersUser/app/src/main/AndroidManifest.xml:72:13-56
	android:name
		ADDED from /home/abc/AndroidAppWorkspace/PotRidersApp/PotRidersUser/app/src/main/AndroidManifest.xml:69:13-74
activity#dev.env.potriders.activity.viewActivity.AdvancedSearchActivity
ADDED from /home/abc/AndroidAppWorkspace/PotRidersApp/PotRidersUser/app/src/main/AndroidManifest.xml:74:9-78:73
	android:screenOrientation
		ADDED from /home/abc/AndroidAppWorkspace/PotRidersApp/PotRidersUser/app/src/main/AndroidManifest.xml:77:13-49
	android:label
		ADDED from /home/abc/AndroidAppWorkspace/PotRidersApp/PotRidersUser/app/src/main/AndroidManifest.xml:76:13-57
	android:windowSoftInputMode
		ADDED from /home/abc/AndroidAppWorkspace/PotRidersApp/PotRidersUser/app/src/main/AndroidManifest.xml:78:13-70
	android:name
		ADDED from /home/abc/AndroidAppWorkspace/PotRidersApp/PotRidersUser/app/src/main/AndroidManifest.xml:75:13-73
activity#dev.env.potriders.activity.viewActivity.TermsConditionsActivity
ADDED from /home/abc/AndroidAppWorkspace/PotRidersApp/PotRidersUser/app/src/main/AndroidManifest.xml:79:9-83:73
	android:screenOrientation
		ADDED from /home/abc/AndroidAppWorkspace/PotRidersApp/PotRidersUser/app/src/main/AndroidManifest.xml:82:13-49
	android:label
		ADDED from /home/abc/AndroidAppWorkspace/PotRidersApp/PotRidersUser/app/src/main/AndroidManifest.xml:81:13-57
	android:windowSoftInputMode
		ADDED from /home/abc/AndroidAppWorkspace/PotRidersApp/PotRidersUser/app/src/main/AndroidManifest.xml:83:13-70
	android:name
		ADDED from /home/abc/AndroidAppWorkspace/PotRidersApp/PotRidersUser/app/src/main/AndroidManifest.xml:80:13-74
provider#android.support.v4.content.FileProvider
ADDED from /home/abc/AndroidAppWorkspace/PotRidersApp/PotRidersUser/app/src/main/AndroidManifest.xml:85:9-93:20
	android:grantUriPermissions
		ADDED from /home/abc/AndroidAppWorkspace/PotRidersApp/PotRidersUser/app/src/main/AndroidManifest.xml:89:13-47
	android:authorities
		ADDED from /home/abc/AndroidAppWorkspace/PotRidersApp/PotRidersUser/app/src/main/AndroidManifest.xml:87:13-65
	android:exported
		ADDED from /home/abc/AndroidAppWorkspace/PotRidersApp/PotRidersUser/app/src/main/AndroidManifest.xml:88:13-37
	android:name
		ADDED from /home/abc/AndroidAppWorkspace/PotRidersApp/PotRidersUser/app/src/main/AndroidManifest.xml:86:13-67
meta-data#android.support.FILE_PROVIDER_PATHS
ADDED from /home/abc/AndroidAppWorkspace/PotRidersApp/PotRidersUser/app/src/main/AndroidManifest.xml:90:13-92:53
	android:resource
		ADDED from /home/abc/AndroidAppWorkspace/PotRidersApp/PotRidersUser/app/src/main/AndroidManifest.xml:92:17-50
	android:name
		ADDED from /home/abc/AndroidAppWorkspace/PotRidersApp/PotRidersUser/app/src/main/AndroidManifest.xml:91:17-67
meta-data#com.google.android.geo.API_KEY
ADDED from /home/abc/AndroidAppWorkspace/PotRidersApp/PotRidersUser/app/src/main/AndroidManifest.xml:95:9-97:55
	android:value
		ADDED from /home/abc/AndroidAppWorkspace/PotRidersApp/PotRidersUser/app/src/main/AndroidManifest.xml:97:13-52
	android:name
		ADDED from /home/abc/AndroidAppWorkspace/PotRidersApp/PotRidersUser/app/src/main/AndroidManifest.xml:96:13-58
meta-data#com.google.android.gms.version
ADDED from /home/abc/AndroidAppWorkspace/PotRidersApp/PotRidersUser/app/src/main/AndroidManifest.xml:99:9-101:69
MERGED from [com.google.android.gms:play-services-basement:16.0.1] /home/abc/.gradle/caches/transforms-1/files-1.1/play-services-basement-16.0.1.aar/b6d8f4f2b02c9be6410796adebdb8f51/AndroidManifest.xml:23:9-25:69
MERGED from [com.google.android.gms:play-services-basement:16.0.1] /home/abc/.gradle/caches/transforms-1/files-1.1/play-services-basement-16.0.1.aar/b6d8f4f2b02c9be6410796adebdb8f51/AndroidManifest.xml:23:9-25:69
	android:value
		ADDED from /home/abc/AndroidAppWorkspace/PotRidersApp/PotRidersUser/app/src/main/AndroidManifest.xml:101:13-66
	android:name
		ADDED from /home/abc/AndroidAppWorkspace/PotRidersApp/PotRidersUser/app/src/main/AndroidManifest.xml:100:13-58
activity#dev.env.potriders.activity.viewActivity.SearchActivity
ADDED from /home/abc/AndroidAppWorkspace/PotRidersApp/PotRidersUser/app/src/main/AndroidManifest.xml:103:9-106:73
	android:screenOrientation
		ADDED from /home/abc/AndroidAppWorkspace/PotRidersApp/PotRidersUser/app/src/main/AndroidManifest.xml:105:13-49
	android:windowSoftInputMode
		ADDED from /home/abc/AndroidAppWorkspace/PotRidersApp/PotRidersUser/app/src/main/AndroidManifest.xml:106:13-70
	android:name
		ADDED from /home/abc/AndroidAppWorkspace/PotRidersApp/PotRidersUser/app/src/main/AndroidManifest.xml:104:13-65
uses-sdk
INJECTED from /home/abc/AndroidAppWorkspace/PotRidersApp/PotRidersUser/app/src/main/AndroidManifest.xml reason: use-sdk injection requested
INJECTED from /home/abc/AndroidAppWorkspace/PotRidersApp/PotRidersUser/app/src/main/AndroidManifest.xml
INJECTED from /home/abc/AndroidAppWorkspace/PotRidersApp/PotRidersUser/app/src/main/AndroidManifest.xml
MERGED from [com.android.databinding:adapters:3.2.1] /home/abc/.gradle/caches/transforms-1/files-1.1/adapters-3.2.1.aar/827b451daf606b30e31540c727a22476/AndroidManifest.xml:22:5-44
MERGED from [com.android.databinding:adapters:3.2.1] /home/abc/.gradle/caches/transforms-1/files-1.1/adapters-3.2.1.aar/827b451daf606b30e31540c727a22476/AndroidManifest.xml:22:5-44
MERGED from [com.android.databinding:library:3.2.1] /home/abc/.gradle/caches/transforms-1/files-1.1/library-3.2.1.aar/82a50df4f585ebb80a8ff58d262e2a3e/AndroidManifest.xml:22:5-44
MERGED from [com.android.databinding:library:3.2.1] /home/abc/.gradle/caches/transforms-1/files-1.1/library-3.2.1.aar/82a50df4f585ebb80a8ff58d262e2a3e/AndroidManifest.xml:22:5-44
MERGED from [:paper-onboarding] /home/abc/AndroidAppWorkspace/PotRidersApp/PotRidersUser/paper-onboarding/build/intermediates/merged_manifests/debug/processDebugManifest/merged/AndroidManifest.xml:7:5-9:41
MERGED from [:paper-onboarding] /home/abc/AndroidAppWorkspace/PotRidersApp/PotRidersUser/paper-onboarding/build/intermediates/merged_manifests/debug/processDebugManifest/merged/AndroidManifest.xml:7:5-9:41
MERGED from [com.android.support:design:28.0.0] /home/abc/.gradle/caches/transforms-1/files-1.1/design-28.0.0.aar/ca4fbe272191e0e0a3195494051ae4b0/AndroidManifest.xml:20:5-44
MERGED from [com.android.support:design:28.0.0] /home/abc/.gradle/caches/transforms-1/files-1.1/design-28.0.0.aar/ca4fbe272191e0e0a3195494051ae4b0/AndroidManifest.xml:20:5-44
MERGED from [com.github.Binary-Finery:Bungee:master-SNAPSHOT] /home/abc/.gradle/caches/transforms-1/files-1.1/Bungee-master-SNAPSHOT.aar/90c9c3ed22d68a19af4aa03e9b9dc2f1/AndroidManifest.xml:7:5-9:41
MERGED from [com.github.Binary-Finery:Bungee:master-SNAPSHOT] /home/abc/.gradle/caches/transforms-1/files-1.1/Bungee-master-SNAPSHOT.aar/90c9c3ed22d68a19af4aa03e9b9dc2f1/AndroidManifest.xml:7:5-9:41
MERGED from [com.yarolegovich:sliding-root-nav:1.1.0] /home/abc/.gradle/caches/transforms-1/files-1.1/sliding-root-nav-1.1.0.aar/5dceedb906f3fc95f21e9135490960e9/AndroidManifest.xml:6:5-8:41
MERGED from [com.yarolegovich:sliding-root-nav:1.1.0] /home/abc/.gradle/caches/transforms-1/files-1.1/sliding-root-nav-1.1.0.aar/5dceedb906f3fc95f21e9135490960e9/AndroidManifest.xml:6:5-8:41
MERGED from [com.android.support:appcompat-v7:28.0.0] /home/abc/.gradle/caches/transforms-1/files-1.1/appcompat-v7-28.0.0.aar/d352f816ee8fd909fa27dccc4b9fb9a0/AndroidManifest.xml:20:5-44
MERGED from [com.android.support:appcompat-v7:28.0.0] /home/abc/.gradle/caches/transforms-1/files-1.1/appcompat-v7-28.0.0.aar/d352f816ee8fd909fa27dccc4b9fb9a0/AndroidManifest.xml:20:5-44
MERGED from [com.android.support.constraint:constraint-layout:1.1.3] /home/abc/.gradle/caches/transforms-1/files-1.1/constraint-layout-1.1.3.aar/42c561ea16dc65d1504b63c13775c44d/AndroidManifest.xml:5:5-7:41
MERGED from [com.android.support.constraint:constraint-layout:1.1.3] /home/abc/.gradle/caches/transforms-1/files-1.1/constraint-layout-1.1.3.aar/42c561ea16dc65d1504b63c13775c44d/AndroidManifest.xml:5:5-7:41
MERGED from [com.android.support:cardview-v7:28.0.0] /home/abc/.gradle/caches/transforms-1/files-1.1/cardview-v7-28.0.0.aar/1a5cf2b187dbed121cffd57baf0f3354/AndroidManifest.xml:20:5-44
MERGED from [com.android.support:cardview-v7:28.0.0] /home/abc/.gradle/caches/transforms-1/files-1.1/cardview-v7-28.0.0.aar/1a5cf2b187dbed121cffd57baf0f3354/AndroidManifest.xml:20:5-44
MERGED from [com.android.support:recyclerview-v7:28.0.0] /home/abc/.gradle/caches/transforms-1/files-1.1/recyclerview-v7-28.0.0.aar/609a8b3100404280b0fdca3aa96c1cdf/AndroidManifest.xml:20:5-44
MERGED from [com.android.support:recyclerview-v7:28.0.0] /home/abc/.gradle/caches/transforms-1/files-1.1/recyclerview-v7-28.0.0.aar/609a8b3100404280b0fdca3aa96c1cdf/AndroidManifest.xml:20:5-44
MERGED from [com.github.JakeWharton:ViewPagerIndicator:2.4.1] /home/abc/.gradle/caches/transforms-1/files-1.1/ViewPagerIndicator-2.4.1.aar/e8d2520989a9affa850c49f6cef0551a/AndroidManifest.xml:7:5-9:41
MERGED from [com.github.JakeWharton:ViewPagerIndicator:2.4.1] /home/abc/.gradle/caches/transforms-1/files-1.1/ViewPagerIndicator-2.4.1.aar/e8d2520989a9affa850c49f6cef0551a/AndroidManifest.xml:7:5-9:41
MERGED from [com.google.android.gms:play-services-location:16.0.0] /home/abc/.gradle/caches/transforms-1/files-1.1/play-services-location-16.0.0.aar/0f66a1ee6bf6b1f02ed2ffa8fc8555ed/AndroidManifest.xml:5:5-44
MERGED from [com.google.android.gms:play-services-location:16.0.0] /home/abc/.gradle/caches/transforms-1/files-1.1/play-services-location-16.0.0.aar/0f66a1ee6bf6b1f02ed2ffa8fc8555ed/AndroidManifest.xml:5:5-44
MERGED from [com.google.android.gms:play-services-maps:16.0.0] /home/abc/.gradle/caches/transforms-1/files-1.1/play-services-maps-16.0.0.aar/6123abc092ab93589000e909751cba8f/AndroidManifest.xml:20:5-44
MERGED from [com.google.android.gms:play-services-maps:16.0.0] /home/abc/.gradle/caches/transforms-1/files-1.1/play-services-maps-16.0.0.aar/6123abc092ab93589000e909751cba8f/AndroidManifest.xml:20:5-44
MERGED from [com.google.android.gms:play-services-base:16.0.1] /home/abc/.gradle/caches/transforms-1/files-1.1/play-services-base-16.0.1.aar/0683ce9bacd3c4e71a1a8ba97053d2f0/AndroidManifest.xml:20:5-44
MERGED from [com.google.android.gms:play-services-base:16.0.1] /home/abc/.gradle/caches/transforms-1/files-1.1/play-services-base-16.0.1.aar/0683ce9bacd3c4e71a1a8ba97053d2f0/AndroidManifest.xml:20:5-44
MERGED from [com.google.android.gms:play-services-places-placereport:16.0.0] /home/abc/.gradle/caches/transforms-1/files-1.1/play-services-places-placereport-16.0.0.aar/b9754ea3d6fa777a83b0d2d9e46b4761/AndroidManifest.xml:20:5-44
MERGED from [com.google.android.gms:play-services-places-placereport:16.0.0] /home/abc/.gradle/caches/transforms-1/files-1.1/play-services-places-placereport-16.0.0.aar/b9754ea3d6fa777a83b0d2d9e46b4761/AndroidManifest.xml:20:5-44
MERGED from [com.google.android.gms:play-services-tasks:16.0.1] /home/abc/.gradle/caches/transforms-1/files-1.1/play-services-tasks-16.0.1.aar/7e943b7e47b1d14ed78ce060472409a1/AndroidManifest.xml:5:5-44
MERGED from [com.google.android.gms:play-services-tasks:16.0.1] /home/abc/.gradle/caches/transforms-1/files-1.1/play-services-tasks-16.0.1.aar/7e943b7e47b1d14ed78ce060472409a1/AndroidManifest.xml:5:5-44
MERGED from [com.google.android.gms:play-services-basement:16.0.1] /home/abc/.gradle/caches/transforms-1/files-1.1/play-services-basement-16.0.1.aar/b6d8f4f2b02c9be6410796adebdb8f51/AndroidManifest.xml:20:5-44
MERGED from [com.google.android.gms:play-services-basement:16.0.1] /home/abc/.gradle/caches/transforms-1/files-1.1/play-services-basement-16.0.1.aar/b6d8f4f2b02c9be6410796adebdb8f51/AndroidManifest.xml:20:5-44
MERGED from [com.android.support:support-v4:28.0.0] /home/abc/.gradle/caches/transforms-1/files-1.1/support-v4-28.0.0.aar/fdec2396c4b68f304b07c79464f71012/AndroidManifest.xml:20:5-44
MERGED from [com.android.support:support-v4:28.0.0] /home/abc/.gradle/caches/transforms-1/files-1.1/support-v4-28.0.0.aar/fdec2396c4b68f304b07c79464f71012/AndroidManifest.xml:20:5-44
MERGED from [de.hdodenhof:circleimageview:2.2.0] /home/abc/.gradle/caches/transforms-1/files-1.1/circleimageview-2.2.0.aar/c77ed1bd4ea0633da90bc27369291f57/AndroidManifest.xml:5:5-7:41
MERGED from [de.hdodenhof:circleimageview:2.2.0] /home/abc/.gradle/caches/transforms-1/files-1.1/circleimageview-2.2.0.aar/c77ed1bd4ea0633da90bc27369291f57/AndroidManifest.xml:5:5-7:41
MERGED from [com.makeramen:roundedimageview:2.3.0] /home/abc/.gradle/caches/transforms-1/files-1.1/roundedimageview-2.3.0.aar/addf15c13f36d86fcec014d2d636d5f5/AndroidManifest.xml:7:5-43
MERGED from [com.makeramen:roundedimageview:2.3.0] /home/abc/.gradle/caches/transforms-1/files-1.1/roundedimageview-2.3.0.aar/addf15c13f36d86fcec014d2d636d5f5/AndroidManifest.xml:7:5-43
MERGED from [com.squareup.picasso:picasso:2.71828] /home/abc/.gradle/caches/transforms-1/files-1.1/picasso-2.71828.aar/679918e637e492341b5f355fdea93703/AndroidManifest.xml:5:5-44
MERGED from [com.squareup.picasso:picasso:2.71828] /home/abc/.gradle/caches/transforms-1/files-1.1/picasso-2.71828.aar/679918e637e492341b5f355fdea93703/AndroidManifest.xml:5:5-44
MERGED from [com.daimajia.easing:library:2.0] /home/abc/.gradle/caches/transforms-1/files-1.1/library-2.0.aar/abbedffa482cb5a46c8c5cb07f1a46ef/AndroidManifest.xml:8:5-10:41
MERGED from [com.daimajia.easing:library:2.0] /home/abc/.gradle/caches/transforms-1/files-1.1/library-2.0.aar/abbedffa482cb5a46c8c5cb07f1a46ef/AndroidManifest.xml:8:5-10:41
MERGED from [com.daimajia.androidanimations:library:2.3] /home/abc/.gradle/caches/transforms-1/files-1.1/library-2.3.aar/32d369535557d3f3a811434876e3352a/AndroidManifest.xml:8:5-10:41
MERGED from [com.daimajia.androidanimations:library:2.3] /home/abc/.gradle/caches/transforms-1/files-1.1/library-2.3.aar/32d369535557d3f3a811434876e3352a/AndroidManifest.xml:8:5-10:41
MERGED from [com.android.support:support-fragment:28.0.0] /home/abc/.gradle/caches/transforms-1/files-1.1/support-fragment-28.0.0.aar/5ada1f7666b922486f727a1acfb0c5c4/AndroidManifest.xml:20:5-44
MERGED from [com.android.support:support-fragment:28.0.0] /home/abc/.gradle/caches/transforms-1/files-1.1/support-fragment-28.0.0.aar/5ada1f7666b922486f727a1acfb0c5c4/AndroidManifest.xml:20:5-44
MERGED from [com.android.support:animated-vector-drawable:28.0.0] /home/abc/.gradle/caches/transforms-1/files-1.1/animated-vector-drawable-28.0.0.aar/b993da1afd441ac997bee017ae9276ba/AndroidManifest.xml:20:5-44
MERGED from [com.android.support:animated-vector-drawable:28.0.0] /home/abc/.gradle/caches/transforms-1/files-1.1/animated-vector-drawable-28.0.0.aar/b993da1afd441ac997bee017ae9276ba/AndroidManifest.xml:20:5-44
MERGED from [com.android.support:support-core-ui:28.0.0] /home/abc/.gradle/caches/transforms-1/files-1.1/support-core-ui-28.0.0.aar/0fe743dfa83d41f13cc796aa814f264b/AndroidManifest.xml:20:5-44
MERGED from [com.android.support:support-core-ui:28.0.0] /home/abc/.gradle/caches/transforms-1/files-1.1/support-core-ui-28.0.0.aar/0fe743dfa83d41f13cc796aa814f264b/AndroidManifest.xml:20:5-44
MERGED from [com.android.support:transition:28.0.0] /home/abc/.gradle/caches/transforms-1/files-1.1/transition-28.0.0.aar/cfb7eb5cc5966d35b3d9ad86512985f2/AndroidManifest.xml:20:5-44
MERGED from [com.android.support:transition:28.0.0] /home/abc/.gradle/caches/transforms-1/files-1.1/transition-28.0.0.aar/cfb7eb5cc5966d35b3d9ad86512985f2/AndroidManifest.xml:20:5-44
MERGED from [com.android.support:support-core-utils:28.0.0] /home/abc/.gradle/caches/transforms-1/files-1.1/support-core-utils-28.0.0.aar/03f49bffaedec38575c21ef42b135da4/AndroidManifest.xml:20:5-44
MERGED from [com.android.support:support-core-utils:28.0.0] /home/abc/.gradle/caches/transforms-1/files-1.1/support-core-utils-28.0.0.aar/03f49bffaedec38575c21ef42b135da4/AndroidManifest.xml:20:5-44
MERGED from [com.android.support:loader:28.0.0] /home/abc/.gradle/caches/transforms-1/files-1.1/loader-28.0.0.aar/da3d94dc4bf95d1de4947dab3dfe74f7/AndroidManifest.xml:20:5-44
MERGED from [com.android.support:loader:28.0.0] /home/abc/.gradle/caches/transforms-1/files-1.1/loader-28.0.0.aar/da3d94dc4bf95d1de4947dab3dfe74f7/AndroidManifest.xml:20:5-44
MERGED from [com.android.support:viewpager:28.0.0] /home/abc/.gradle/caches/transforms-1/files-1.1/viewpager-28.0.0.aar/5bbb2c38165a17e350d03533ccad36e1/AndroidManifest.xml:20:5-44
MERGED from [com.android.support:viewpager:28.0.0] /home/abc/.gradle/caches/transforms-1/files-1.1/viewpager-28.0.0.aar/5bbb2c38165a17e350d03533ccad36e1/AndroidManifest.xml:20:5-44
MERGED from [com.android.support:coordinatorlayout:28.0.0] /home/abc/.gradle/caches/transforms-1/files-1.1/coordinatorlayout-28.0.0.aar/bae7af3c901c30130273a373a2a84665/AndroidManifest.xml:20:5-44
MERGED from [com.android.support:coordinatorlayout:28.0.0] /home/abc/.gradle/caches/transforms-1/files-1.1/coordinatorlayout-28.0.0.aar/bae7af3c901c30130273a373a2a84665/AndroidManifest.xml:20:5-44
MERGED from [com.android.support:drawerlayout:28.0.0] /home/abc/.gradle/caches/transforms-1/files-1.1/drawerlayout-28.0.0.aar/8afe91e91aae99853bf9cf46d0034a97/AndroidManifest.xml:20:5-44
MERGED from [com.android.support:drawerlayout:28.0.0] /home/abc/.gradle/caches/transforms-1/files-1.1/drawerlayout-28.0.0.aar/8afe91e91aae99853bf9cf46d0034a97/AndroidManifest.xml:20:5-44
MERGED from [com.android.support:slidingpanelayout:28.0.0] /home/abc/.gradle/caches/transforms-1/files-1.1/slidingpanelayout-28.0.0.aar/91aa111d6ae90c588a595a035fd4682c/AndroidManifest.xml:20:5-44
MERGED from [com.android.support:slidingpanelayout:28.0.0] /home/abc/.gradle/caches/transforms-1/files-1.1/slidingpanelayout-28.0.0.aar/91aa111d6ae90c588a595a035fd4682c/AndroidManifest.xml:20:5-44
MERGED from [com.android.support:customview:28.0.0] /home/abc/.gradle/caches/transforms-1/files-1.1/customview-28.0.0.aar/b7d4112d001fcb258cd8905c41b13a5a/AndroidManifest.xml:20:5-44
MERGED from [com.android.support:customview:28.0.0] /home/abc/.gradle/caches/transforms-1/files-1.1/customview-28.0.0.aar/b7d4112d001fcb258cd8905c41b13a5a/AndroidManifest.xml:20:5-44
MERGED from [com.android.support:swiperefreshlayout:28.0.0] /home/abc/.gradle/caches/transforms-1/files-1.1/swiperefreshlayout-28.0.0.aar/63bfb6b858ec92ae391bb652ac6ff2df/AndroidManifest.xml:20:5-44
MERGED from [com.android.support:swiperefreshlayout:28.0.0] /home/abc/.gradle/caches/transforms-1/files-1.1/swiperefreshlayout-28.0.0.aar/63bfb6b858ec92ae391bb652ac6ff2df/AndroidManifest.xml:20:5-44
MERGED from [com.android.support:asynclayoutinflater:28.0.0] /home/abc/.gradle/caches/transforms-1/files-1.1/asynclayoutinflater-28.0.0.aar/c9e7198fb55aa1b6917e063702419133/AndroidManifest.xml:20:5-44
MERGED from [com.android.support:asynclayoutinflater:28.0.0] /home/abc/.gradle/caches/transforms-1/files-1.1/asynclayoutinflater-28.0.0.aar/c9e7198fb55aa1b6917e063702419133/AndroidManifest.xml:20:5-44
MERGED from [com.android.support:support-media-compat:28.0.0] /home/abc/.gradle/caches/transforms-1/files-1.1/support-media-compat-28.0.0.aar/cdb4383b0021dc67783a4ce7af83a845/AndroidManifest.xml:20:5-44
MERGED from [com.android.support:support-media-compat:28.0.0] /home/abc/.gradle/caches/transforms-1/files-1.1/support-media-compat-28.0.0.aar/cdb4383b0021dc67783a4ce7af83a845/AndroidManifest.xml:20:5-44
MERGED from [com.android.support:support-vector-drawable:28.0.0] /home/abc/.gradle/caches/transforms-1/files-1.1/support-vector-drawable-28.0.0.aar/907ca57806502146036ced1328eb6ca7/AndroidManifest.xml:20:5-44
MERGED from [com.android.support:support-vector-drawable:28.0.0] /home/abc/.gradle/caches/transforms-1/files-1.1/support-vector-drawable-28.0.0.aar/907ca57806502146036ced1328eb6ca7/AndroidManifest.xml:20:5-44
MERGED from [com.android.support:support-compat:28.0.0] /home/abc/.gradle/caches/transforms-1/files-1.1/support-compat-28.0.0.aar/1d86d14c1a42a590c5359029a29634cf/AndroidManifest.xml:20:5-44
MERGED from [com.android.support:support-compat:28.0.0] /home/abc/.gradle/caches/transforms-1/files-1.1/support-compat-28.0.0.aar/1d86d14c1a42a590c5359029a29634cf/AndroidManifest.xml:20:5-44
MERGED from [android.arch.lifecycle:runtime:1.1.1] /home/abc/.gradle/caches/transforms-1/files-1.1/runtime-1.1.1.aar/509c208d22864401312cb92c023190b1/AndroidManifest.xml:20:5-44
MERGED from [android.arch.lifecycle:runtime:1.1.1] /home/abc/.gradle/caches/transforms-1/files-1.1/runtime-1.1.1.aar/509c208d22864401312cb92c023190b1/AndroidManifest.xml:20:5-44
MERGED from [com.android.support:versionedparcelable:28.0.0] /home/abc/.gradle/caches/transforms-1/files-1.1/versionedparcelable-28.0.0.aar/cfdb7c1472877e9329def719d30e58da/AndroidManifest.xml:20:5-44
MERGED from [com.android.support:versionedparcelable:28.0.0] /home/abc/.gradle/caches/transforms-1/files-1.1/versionedparcelable-28.0.0.aar/cfdb7c1472877e9329def719d30e58da/AndroidManifest.xml:20:5-44
MERGED from [com.android.support:exifinterface:27.1.0] /home/abc/.gradle/caches/transforms-1/files-1.1/exifinterface-27.1.0.aar/eeb53a845c2d59a57b403548fa4d2449/AndroidManifest.xml:20:5-44
MERGED from [com.android.support:exifinterface:27.1.0] /home/abc/.gradle/caches/transforms-1/files-1.1/exifinterface-27.1.0.aar/eeb53a845c2d59a57b403548fa4d2449/AndroidManifest.xml:20:5-44
MERGED from [android.arch.lifecycle:viewmodel:1.1.1] /home/abc/.gradle/caches/transforms-1/files-1.1/viewmodel-1.1.1.aar/41c8ea299e33321034ba9b543c16b640/AndroidManifest.xml:20:5-44
MERGED from [android.arch.lifecycle:viewmodel:1.1.1] /home/abc/.gradle/caches/transforms-1/files-1.1/viewmodel-1.1.1.aar/41c8ea299e33321034ba9b543c16b640/AndroidManifest.xml:20:5-44
MERGED from [com.android.support:interpolator:28.0.0] /home/abc/.gradle/caches/transforms-1/files-1.1/interpolator-28.0.0.aar/e062413d17ec2b276bd36ab4e931fd66/AndroidManifest.xml:20:5-44
MERGED from [com.android.support:interpolator:28.0.0] /home/abc/.gradle/caches/transforms-1/files-1.1/interpolator-28.0.0.aar/e062413d17ec2b276bd36ab4e931fd66/AndroidManifest.xml:20:5-44
MERGED from [com.android.support:cursoradapter:28.0.0] /home/abc/.gradle/caches/transforms-1/files-1.1/cursoradapter-28.0.0.aar/b6c13468985002b1587a9a2f56bedaaf/AndroidManifest.xml:20:5-44
MERGED from [com.android.support:cursoradapter:28.0.0] /home/abc/.gradle/caches/transforms-1/files-1.1/cursoradapter-28.0.0.aar/b6c13468985002b1587a9a2f56bedaaf/AndroidManifest.xml:20:5-44
MERGED from [android.arch.lifecycle:livedata:1.1.1] /home/abc/.gradle/caches/transforms-1/files-1.1/livedata-1.1.1.aar/1c31953fb015df0265fb0635026a7206/AndroidManifest.xml:20:5-44
MERGED from [android.arch.lifecycle:livedata:1.1.1] /home/abc/.gradle/caches/transforms-1/files-1.1/livedata-1.1.1.aar/1c31953fb015df0265fb0635026a7206/AndroidManifest.xml:20:5-44
MERGED from [android.arch.lifecycle:livedata-core:1.1.1] /home/abc/.gradle/caches/transforms-1/files-1.1/livedata-core-1.1.1.aar/31c3d5ed249f29086b952df7164872f5/AndroidManifest.xml:20:5-44
MERGED from [android.arch.lifecycle:livedata-core:1.1.1] /home/abc/.gradle/caches/transforms-1/files-1.1/livedata-core-1.1.1.aar/31c3d5ed249f29086b952df7164872f5/AndroidManifest.xml:20:5-44
MERGED from [android.arch.core:runtime:1.1.1] /home/abc/.gradle/caches/transforms-1/files-1.1/runtime-1.1.1.aar/95ad789b0a489218bf86cf2a4495886c/AndroidManifest.xml:20:5-44
MERGED from [android.arch.core:runtime:1.1.1] /home/abc/.gradle/caches/transforms-1/files-1.1/runtime-1.1.1.aar/95ad789b0a489218bf86cf2a4495886c/AndroidManifest.xml:20:5-44
MERGED from [com.android.support:documentfile:28.0.0] /home/abc/.gradle/caches/transforms-1/files-1.1/documentfile-28.0.0.aar/18076f96c495f7361ed20a5f96f3de0f/AndroidManifest.xml:20:5-44
MERGED from [com.android.support:documentfile:28.0.0] /home/abc/.gradle/caches/transforms-1/files-1.1/documentfile-28.0.0.aar/18076f96c495f7361ed20a5f96f3de0f/AndroidManifest.xml:20:5-44
MERGED from [com.android.support:localbroadcastmanager:28.0.0] /home/abc/.gradle/caches/transforms-1/files-1.1/localbroadcastmanager-28.0.0.aar/6ca103656988aa7d3acd3e91c573198c/AndroidManifest.xml:20:5-44
MERGED from [com.android.support:localbroadcastmanager:28.0.0] /home/abc/.gradle/caches/transforms-1/files-1.1/localbroadcastmanager-28.0.0.aar/6ca103656988aa7d3acd3e91c573198c/AndroidManifest.xml:20:5-44
MERGED from [com.android.support:print:28.0.0] /home/abc/.gradle/caches/transforms-1/files-1.1/print-28.0.0.aar/b41177639c64ba4d1d9f1ada7da11ee9/AndroidManifest.xml:20:5-44
MERGED from [com.android.support:print:28.0.0] /home/abc/.gradle/caches/transforms-1/files-1.1/print-28.0.0.aar/b41177639c64ba4d1d9f1ada7da11ee9/AndroidManifest.xml:20:5-44
INJECTED from /home/abc/AndroidAppWorkspace/PotRidersApp/PotRidersUser/app/src/main/AndroidManifest.xml
INJECTED from /home/abc/AndroidAppWorkspace/PotRidersApp/PotRidersUser/app/src/main/AndroidManifest.xml
	android:targetSdkVersion
		INJECTED from /home/abc/AndroidAppWorkspace/PotRidersApp/PotRidersUser/app/src/main/AndroidManifest.xml
		ADDED from /home/abc/AndroidAppWorkspace/PotRidersApp/PotRidersUser/app/src/main/AndroidManifest.xml
		INJECTED from /home/abc/AndroidAppWorkspace/PotRidersApp/PotRidersUser/app/src/main/AndroidManifest.xml
	android:minSdkVersion
		INJECTED from /home/abc/AndroidAppWorkspace/PotRidersApp/PotRidersUser/app/src/main/AndroidManifest.xml
		ADDED from /home/abc/AndroidAppWorkspace/PotRidersApp/PotRidersUser/app/src/main/AndroidManifest.xml
		INJECTED from /home/abc/AndroidAppWorkspace/PotRidersApp/PotRidersUser/app/src/main/AndroidManifest.xml
uses-feature#0x00020000
ADDED from [com.google.android.gms:play-services-maps:16.0.0] /home/abc/.gradle/caches/transforms-1/files-1.1/play-services-maps-16.0.0.aar/6123abc092ab93589000e909751cba8f/AndroidManifest.xml:26:5-28:35
	android:glEsVersion
		ADDED from [com.google.android.gms:play-services-maps:16.0.0] /home/abc/.gradle/caches/transforms-1/files-1.1/play-services-maps-16.0.0.aar/6123abc092ab93589000e909751cba8f/AndroidManifest.xml:27:9-41
	android:required
		ADDED from [com.google.android.gms:play-services-maps:16.0.0] /home/abc/.gradle/caches/transforms-1/files-1.1/play-services-maps-16.0.0.aar/6123abc092ab93589000e909751cba8f/AndroidManifest.xml:28:9-32
activity#com.google.android.gms.common.api.GoogleApiActivity
ADDED from [com.google.android.gms:play-services-base:16.0.1] /home/abc/.gradle/caches/transforms-1/files-1.1/play-services-base-16.0.1.aar/0683ce9bacd3c4e71a1a8ba97053d2f0/AndroidManifest.xml:23:9-26:75
	android:exported
		ADDED from [com.google.android.gms:play-services-base:16.0.1] /home/abc/.gradle/caches/transforms-1/files-1.1/play-services-base-16.0.1.aar/0683ce9bacd3c4e71a1a8ba97053d2f0/AndroidManifest.xml:25:13-37
	android:theme
		ADDED from [com.google.android.gms:play-services-base:16.0.1] /home/abc/.gradle/caches/transforms-1/files-1.1/play-services-base-16.0.1.aar/0683ce9bacd3c4e71a1a8ba97053d2f0/AndroidManifest.xml:26:13-72
	android:name
		ADDED from [com.google.android.gms:play-services-base:16.0.1] /home/abc/.gradle/caches/transforms-1/files-1.1/play-services-base-16.0.1.aar/0683ce9bacd3c4e71a1a8ba97053d2f0/AndroidManifest.xml:24:13-79
provider#com.squareup.picasso.PicassoProvider
ADDED from [com.squareup.picasso:picasso:2.71828] /home/abc/.gradle/caches/transforms-1/files-1.1/picasso-2.71828.aar/679918e637e492341b5f355fdea93703/AndroidManifest.xml:8:9-11:40
	android:authorities
		ADDED from [com.squareup.picasso:picasso:2.71828] /home/abc/.gradle/caches/transforms-1/files-1.1/picasso-2.71828.aar/679918e637e492341b5f355fdea93703/AndroidManifest.xml:10:13-72
	android:exported
		ADDED from [com.squareup.picasso:picasso:2.71828] /home/abc/.gradle/caches/transforms-1/files-1.1/picasso-2.71828.aar/679918e637e492341b5f355fdea93703/AndroidManifest.xml:11:13-37
	android:name
		ADDED from [com.squareup.picasso:picasso:2.71828] /home/abc/.gradle/caches/transforms-1/files-1.1/picasso-2.71828.aar/679918e637e492341b5f355fdea93703/AndroidManifest.xml:9:13-64
